BCG;1986;91
BCG;1987;92
BCG;1988;92
BCG;1989;92
BCG;1990;92
BCG;1991;88
BCG;1992;86
BCG;1993;87
BCG;1994;92
BCG;1995;92
BCG;1996;93
BCG;1997;93
BCG;1998;95
BCG;1999;96
BCG;2000;96
BCG;2001;96
BCG;2002;97
BCG;2003;97
BCG;2004;96
BCG;2005;97
BCG;2006;97
BCG;2007;97
BCG;2008;96
BCG;2009;96
BCG;2010;96
BCG;2011;95
BCG;2012;96
BCG;2013;96
BCG;2014;96
BCG;2015;96
BCG;2016;96
BCG;2017;95
BCG;2018;95
DiphCV4;2018;97
DiphCV5;2018;97
DiphCV6;2018;97
DTP1;2000;97
DTP3;1986;60
DTP3;1987;58
DTP3;1988;50
DTP3;1989;60
DTP3;1990;69
DTP3;1991;69
DTP3;1992;73
DTP3;1993;79
DTP3;1994;88
DTP3;1995;78
DTP3;1996;84
DTP3;1997;88
DTP3;1998;91
DTP3;1999;95
DTP3;2000;96
DTP3;2001;96
DTP3;2002;97
DTP3;2003;96
DTP3;2004;97
DTP3;2005;98
DTP3;2006;98
DTP3;2007;98
DTP3;2008;98
DTP3;2009;98
DTP3;2010;97
DTP3;2011;97
DTP3;2012;97
DTP3;2013;97
DTP3;2014;97
DTP3;2015;97
DTP3;2016;97
DTP3;2017;97
DTP3;2018;97
DTP4;2014;96
DTP4;2015;97
DTP4;2016;97
DTP4;2017;97
HepB_BD;2003;49
HepB3;1999;3
HepB3;2000;10
HepB3;2001;43
HepB3;2002;81
HepB3;2003;94
HepB3;2004;96
HepB3;2005;97
HepB3;2006;98
HepB3;2007;98
HepB3;2008;98
HepB3;2009;98
HepB3;2010;97
HepB3;2011;97
HepB3;2012;97
HepB3;2013;97
HepB3;2014;97
HepB3;2015;97
HepB3;2016;97
HepB3;2017;97
HepB3;2018;97
Hib3;2012;90
MCV1;1986;76
MCV1;1987;92
MCV1;1988;89
MCV1;1989;82
MCV1;1990;81
MCV1;1991;79
MCV1;1992;83
MCV1;1993;88
MCV1;1994;81
MCV1;1995;85
MCV1;1996;89
MCV1;1997;91
MCV1;1998;94
MCV1;1999;97
MCV1;2000;97
MCV1;2001;97
MCV1;2002;98
MCV1;2003;98
MCV1;2004;98
MCV1;2005;99
MCV1;2006;99
MCV1;2007;99
MCV1;2008;99
MCV1;2009;99
MCV1;2010;98
MCV1;2011;98
MCV1;2012;98
MCV1;2013;98
MCV1;2014;98
MCV1;2015;98
MCV1;2016;98
MCV1;2017;98
MCV1;2018;98
MCV2;1993;32
MCV2;1994;40
MCV2;1995;42
MCV2;1996;46
MCV2;1997;51
MCV2;1998;76
MCV2;1999;84
MCV2;2000;86
MCV2;2001;88
MCV2;2002;93
MCV2;2003;96
MCV2;2004;97
MCV2;2005;97
MCV2;2006;97
MCV2;2007;97
MCV2;2008;97
MCV2;2009;97
MCV2;2010;98
MCV2;2011;97
MCV2;2012;97
MCV2;2013;97
MCV2;2014;97
MCV2;2015;97
MCV2;2016;97
MCV2;2017;97
MCV2;2018;97
MMR;1991;57
MMR;1992;62
MMR;1993;67
MMR;1994;71
MMR;1995;77
MMR;1996;83
MMR;1997;87
MMR;2001;98
PCV2;2014;8
PCV2;2016;75
PCV2;2017;88
PCV2;2018;92
PCV3;2016;35
PCV3;2017;70
PCV3;2018;82
PerCV4;2018;97
Pol3;1986;57
Pol3;1987;50
Pol3;1988;61
Pol3;1989;69
Pol3;1990;69
Pol3;1991;72
Pol3;1992;69
Pol3;1993;82
Pol3;1994;68
Pol3;1995;77
Pol3;1996;87
Pol3;1997;91
Pol3;1998;94
Pol3;1999;97
Pol3;2000;97
Pol3;2001;97
Pol3;2002;97
Pol3;2003;97
Pol3;2004;98
Pol3;2005;98
Pol3;2006;98
Pol3;2007;98
Pol3;2008;98
Pol3;2009;98
Pol3;2010;98
Pol3;2011;98
Pol3;2012;98
Pol3;2013;98
Pol3;2014;97
Pol3;2015;97
Pol3;2016;97
Pol3;2017;96
Pol3;2018;96
RCV1;2004;92
RCV1;2005;95
RCV1;2006;98
RCV1;2007;98
RCV1;2008;98
RCV1;2009;98
RCV1;2010;98
RCV1;2011;98
RCV1;2012;98
RCV1;2013;98
RCV1;2014;98
RCV1;2015;98
RCV1;2016;98
RCV1;2017;98
RCV1;2018;98
TT2plus;1991;69
TT2plus;1992;73
TT2plus;1993;79
TT2plus;1994;88
TT2plus;1995;93
TT2plus;1996;95
TT2plus;1997;96
TTCV4;2018;97
TTCV5;2018;97
TTCV6;2018;97
